Log file created at: 2020/11/19 15:49:16
Running on machine: nixos
Log line format: [IWEF]mmdd hh:mm:ss.uuuuuu threadid file:line] msg
I1119 15:49:16.848415  7408 selectfile.cpp:5] nous sommes dans le main
